Place,Sex,Name,CyrillicName,BodyweightKg,Squat1Kg,Squat2Kg,Squat3Kg,Best3SquatKg,Squat4Kg,Bench1Kg,Bench2Kg,Bench3Kg,Best3BenchKg,Bench4Kg,Deadlift1Kg,Deadlift2Kg,Deadlift3Kg,Best3DeadliftKg,Deadlift4Kg,TotalKg,WeightClassKg,Event,Equipment,Tested,Division,Age,BirthDate
1,F,Angelina Stafeeva,Ангелина Стафеева,51.6,65,75,85,85,,35,42.5,45,45,,85,92.5,-100,92.5,,222.5,52,SBD,Raw,Yes,Teen 18-19,18,1998-10-16
DQ,F,Darya Ryabukhina,Дарья Рябухина,51.1,-70,-70,-70,,,-40,,,,,-80,,,,,,52,SBD,Raw,Yes,Juniors 20-23,20,1996-04-13
1,F,Anastasiya Lebedeva,Анастасия Лебедева,54.4,90,-100,-100,90,,50,55,57.5,57.5,,90,95,100,100,,247.5,56,SBD,Raw,Yes,Juniors 20-23,21,1995-01-11
1,F,Ekaterina Barinova,Екатерина Баринова,54.3,-40,55,-62.5,55,,27.5,30,35,35,,60,70,,70,,160,56,SBD,Raw,Yes,Open,28,1988-08-14
1,F,Mariya Golubeva,Мария Голубева,56.9,45,50,-55,50,,-35,35,-40,35,,82.5,90,95,95,,180,60,SBD,Raw,Yes,Open,36,1980-06-04
1,F,Oksana Naletova,Оксана Налетова,63.1,75,-85,90,90,,50,55,-60,55,,105,110,115,115,,260,67.5,SBD,Raw,Yes,Juniors 20-23,21,1995-11-22
2,F,Anastasiya Panfilkina,Анастасия Панфилкина,66.1,47.5,52.5,55,55,,37.5,40,45,45,,67.5,72.5,77.5,77.5,,177.5,67.5,SBD,Raw,Yes,Juniors 20-23,20,1996-01-15
DQ,F,Anastasiya Galkina,Анастасия Галкина,66.2,-80,-80,-80,,,-40,,,,,-102.5,,,,,,67.5,SBD,Raw,Yes,Juniors 20-23,21,1995-10-05
1,F,Elena Suzdaltseva,Елена Суздальцева,64.1,-105,107.5,110,110,,55,-57.5,-57.5,55,,110,115,120,120,,285,67.5,SBD,Raw,Yes,Open,28,1988-11-13
1,F,Olga Laevskaya,Ольга Лаевская,60.2,,75,80,80,,40,42.5,-45,42.5,,80,90,95,95,,217.5,67.5,SBD,Raw,Yes,Masters 40-44,43,1973-12-14
1,F,Ekaterina Lutchenko,Екатерина Лутченко,71.7,100,105,110,110,,45,50,-52.5,50,,130,135,140,140,,300,75,SBD,Raw,Yes,Open,32,1984-04-02
1,M,Maksim Yashin,Максим Яшин,72.5,100,115,130,130,,85,92.5,100,100,,130,145,160,160,,390,75,SBD,Raw,Yes,Juniors 20-23,20,1995-12-28
1,M,Oleg Ershov,Олег Ершов,73.5,170,195,205,205,,130,137.5,142.5,142.5,,182.5,202.5,215,215,,562.5,75,SBD,Raw,Yes,Open,25,1991-04-09
2,M,Denis Nikolaev,Денис Николаев,70,-160,-170,175,175,,-100,100,-107.5,100,,160,182.5,205,205,,480,75,SBD,Raw,Yes,Open,25,1991-07-15
1,M,Maksim Novikov,Максим Новиков,81.3,205,212.5,215,215,,127.5,132.5,135,135,,220,230,237.5,237.5,,587.5,82.5,SBD,Raw,Yes,Teen 18-19,18,1998-01-10
2,M,Denis Avtukhov,Денис Автухов,82.1,150,162.5,167.5,167.5,,90,100,-105,100,,170,195,210,210,,477.5,82.5,SBD,Raw,Yes,Teen 18-19,19,1997-07-19
3,M,Dmitriy Yaskevich,Дмитрий Яскевич,81.1,145,155,-160,155,,100,107.5,-110,107.5,,175,185,192.5,192.5,,455,82.5,SBD,Raw,Yes,Teen 18-19,19,1997-01-24
4,M,Nikita Prosovikov,Никита Просовиков,79.4,130,140,-150,140,,70,80,-85,80,,130,140,-150,140,,360,82.5,SBD,Raw,Yes,Teen 13-15,15,2001-05-08
1,M,Maksim Novikov,Максим Новиков,81.3,215,,,215,,135,,,135,,237.5,,,237.5,,587.5,82.5,SBD,Raw,Yes,Open,18,1998-01-10
2,M,Oleg Yarygin,Олег Ярыгин,80.1,135,147.5,155,155,,105,112.5,-117.5,112.5,,170,185,-195,185,,452.5,82.5,SBD,Raw,Yes,Open,34,1982-09-16
DQ,M,Maksim Novikov,Максим Новиков,81.3,-205,,,,,-127.5,,,,,-220,,,,,,82.5,SBD,Raw,Yes,Open,18,1998-01-10
1,M,Daniil Prosviryakov,Даниил Просвиряков,87.3,-140,140,-150,140,,90,100,105,105,,160,-180,195,195,,440,90,SBD,Raw,Yes,Teen 18-19,18,1998-10-26
2,M,Lev Kupriyanov,Лев Куприянов,88.3,80,90,95,95,,70,80,-85,80,,110,120,130,130,,305,90,SBD,Raw,Yes,Teen 13-15,14,2002-04-17
1,M,Stanislav Belov,Станислав Белов,88.9,210,222.5,230,230,,125,137.5,142.5,142.5,,215,225,235,235,,607.5,90,SBD,Raw,Yes,Open,26,1990-11-11
2,M,Igor Ermolaev,Игорь Ермолаев,89.6,195,200,-205,200,,155,160,-165,160,,200,210,220,220,,580,90,SBD,Raw,Yes,Open,42,1974-03-15
3,M,Vitaliy Totoldin,Виталий Тотолдин,89.1,-160,160,-180,160,,117.5,122.5,-127.5,122.5,,170,190,-205,190,,472.5,90,SBD,Raw,Yes,Open,27,1989-03-24
1,M,Igor Ermolaev,Игорь Ермолаев,89.6,200,,,200,,160,,,160,,220,,,220,,580,90,SBD,Raw,Yes,Masters 40-44,42,1974-03-15
DQ,M,Igor Ermolaev,Игорь Ермолаев,89.6,-195,,,,,-155,,,,,-200,,,,,,90,SBD,Raw,Yes,Masters 40-44,42,1974-03-15
1,M,Artur Khanov,Артур Ханов,98.3,160,170,177.5,177.5,,145,155,160,160,,200,215,220,220,,557.5,100,SBD,Raw,Yes,Open,26,1990-09-25
1,M,Andrey Strelets,Андрей Стрелец,106.8,200,-210,-215,200,,150,160,-170,160,,220,230,250,250,,610,110,SBD,Raw,Yes,Open,38,1978-08-24
1,M,Aleksandr Fomichev #2,Александр Фомичев,100.3,170,-190,-190,170,,-130,130,140,140,,165,175,,175,,485,110,SBD,Raw,Yes,Masters 40-44,40,1976-03-24
1,M,Aleksey Kotov,Алексей Котов,132.7,290,302.5,312.5,312.5,,190,-197.5,197.5,197.5,,280,295,305,305,,815,140,SBD,Raw,Yes,Open,36,1980-01-24
1,F,Anna Romanova,Анна Романова,55.6,90,95,100,100,,47.5,50,-52.5,50,,122.5,-130,-130,122.5,,272.5,56,SBD,Raw,No,Open,33,1983-10-16
1,M,Abdul Balazhonov,Абдул Балажонов,74.9,140,155,-165,155,,90,100,105,105,,150,165,175,175,,435,75,SBD,Raw,No,Open,28,1988-09-03
1,M,Pavel Sheff,Павел Шефф,78.3,200,,,200,,150,,,150,,230,,,230,,580,82.5,SBD,Raw,No,Juniors 20-23,23,1993-07-09
2,M,Dmitriy Kalinkin,Дмитрий Калинкин,81.7,180,190,-200,190,,135,-142.5,-142.5,135,,200,210,220,220,,545,82.5,SBD,Raw,No,Juniors 20-23,23,1993-07-15
1,M,Dmitriy Gritsaev,Дмитрий Грицаев,81.8,190,202.5,210,210,,130,140,150,150,,230,245,250,250,,610,82.5,SBD,Raw,No,Open,25,1991-06-05
2,M,Pavel Sheff,Павел Шефф,78.3,190,200,-205,200,,140,150,-152.5,150,,230,-247.5,-247.5,230,,580,82.5,SBD,Raw,No,Open,23,1993-07-09
1,M,Dmitriy Dubkov,Дмитрий Дубков,89.9,180,190,200,200,,110,117.5,122.5,122.5,,230,240,250,250,,572.5,90,SBD,Raw,No,Open,36,1980-01-29
1,M,Fedor Laevskiy,Федор Лаевский,89.4,145,155,165,165,,117.5,125,-130,125,,-195,195,-202.5,195,,485,90,SBD,Raw,No,Masters 45-49,48,1968-01-07
1,M,Aleksey Krylov,Алексей Крылов,98.7,190,205,-212.5,205,,127.5,-132.5,132.5,132.5,,252.5,267.5,275,275,,612.5,100,SBD,Raw,No,Open,28,1988-02-21
1,M,Evgeniy Loktev,Евгений Локтев,96,130,140,150,150,,110,120,125,125,,195,210,220,220,,495,100,SBD,Raw,No,Masters 55-59,59,1957-01-12
1,M,Aleksandr Stepanov,Александр Степанов,102.9,160,180,190,190,,150,160,170,170,,195,210,220,220,,580,110,SBD,Raw,No,Masters 40-44,41,1975-05-09
1,M,Aleksandr Luzanov,Александр Лузанов,121.7,220,230,-240,230,,155,-165,165,165,,250,-260,-265,250,,645,125,SBD,Raw,No,Juniors 20-23,23,1993-09-30
1,M,Ivan Arapov,Иван Арапов,81.2,205,215,-225,215,,125,132.5,-140,132.5,,195,205,215,215,,562.5,82.5,SBD,Wraps,Yes,Open,24,1992-08-09
2,M,Konstantin Berngard,Константин Бернгард,77.9,130,-140,-140,130,,90,92.5,-97.5,92.5,,145,152.5,160,160,,382.5,82.5,SBD,Wraps,Yes,Open,31,1985-08-06
1,M,Igor Goryaev,Игорь Горяев,88.8,190,200,212.5,212.5,,125,132.5,137.5,137.5,,-195,200,205,205,,555,90,SBD,Wraps,Yes,Open,25,1991-02-17
DQ,M,Igor Yakurnov,Игорь Якурнов,94.5,190,200,-210,200,,-160,-160,-160,,,-200,,,,,,100,SBD,Wraps,Yes,Open,33,1983-05-10
1,M,Aleksey Grobovoy,Алексей Гробовой,80.3,-170,-170,170,170,,120,125,130,130,,170,180,-197.5,180,,480,82.5,SBD,Wraps,No,Open,29,1987-05-02
1,M,Andrey Pavlyuchenko,Андрей Павлюченко,88.6,205,220,240,240,,105,115,120,120,,210,240,-250,240,,600,90,SBD,Wraps,No,Open,26,1990-04-20
2,M,Sergey Smirnov,Сергей Смирнов,88.4,-205,205,-215,205,,-130,130,135,135,,210,220,-230,220,,560,90,SBD,Wraps,No,Open,26,1990-09-27
1,M,Pavel Bezuglov,Павел Безуглов,99,-280,-280,280,280,,170,180,-185,180,,280,-295,-295,280,,740,100,SBD,Wraps,No,Open,31,1985-01-10
2,M,Vyacheslav Artamonov,Вячеслав Артамонов,93.4,210,220,230,230,,145,155,160,160,,230,240,,240,,630,100,SBD,Wraps,No,Open,29,1987-07-16
3,M,Vladislav Kharitonov,Владислав Харитонов,93.8,200,210,220,220,,130,135,140,140,,190,200,210,210,,570,100,SBD,Wraps,No,Open,31,1985-10-27
DQ,M,Roman Mirankov,Роман Миранков,97.2,-180,180,190,190,,-140,-145,145,145,,,,,,,,100,SBD,Wraps,No,Open,29,1987-07-27
1,M,Sergey Kudryashov,Сергей Кудряшов,101.2,215,225,235,235,,162.5,170,175,175,,250,260,270,270,,680,110,SBD,Wraps,No,Open,28,1988-05-01
1,M,Oleg Vlasov,Олег Власов,122,-300,-300,300,300,,200,215,-225,215,,300,315,325,325,,840,125,SBD,Wraps,No,Open,43,1973-12-16
2,M,Nikolay Khlopchur,Николай Хлопчур,122.5,280,290,-300,290,,175,182.5,187.5,187.5,,320,330,340,340,,817.5,125,SBD,Wraps,No,Open,29,1987-09-18
3,M,Aleksandr Komkov,Александр Комков,117.4,300,320,-330,320,,190,200,-205,200,,270,285,-300,285,,805,125,SBD,Wraps,No,Open,33,1983-11-26
1,M,Pavel Beketov,Павел Бекетов,99.3,-240,240,260,260,,170,-190,190,190,,220,240,-250,240,,690,100,SBD,Single-ply,Yes,Open,27,1989-05-13
1,M,Elena Kapitonova,Елена Капитонова,55.2,70,80,-90,80,,,,,,,,,,,,80,56,S,Raw,Yes,Open,28,1988-05-28
2,M,Rodion Aunin,Родион Аунин,85.4,170,-180,187.5,187.5,,,,,,,,,,,,187.5,90,S,Raw,Yes,Open,25,1991-12-09
3,M,Roman Panfilov,Роман Панфилов,94.4,-160,160,-195,160,,,,,,,,,,,,160,100,S,Raw,Yes,Masters 40-44,40,1976-07-15
1,M,Evgeniy Markov,Евгений Марков,84,190,202.5,210,210,,,,,,,,,,,,210,90,S,Wraps,Yes,Masters 40-44,43,1973-04-23
1,M,Vladislav Kharitonov,Владислав Харитонов,93.8,220,,,220,,,,,,,,,,,,220,100,S,Wraps,No,Open,31,1985-10-27
1,F,Olga Nikolaeva,Ольга Николаева,54.1,,,,,,35,37.5,-40,37.5,,,,,,,37.5,56,B,Raw,No,Open,26,1990-08-11
1,M,Aleksandr Medvedev,Александр Медведев,81.8,,,,,,160,165,-170,165,,,,,,,165,82.5,B,Raw,No,Open,34,1982-09-14
2,M,Oleg Tikhonovskiy,Олег Тихоновский,81.9,,,,,,-157.5,157.5,-165,157.5,,,,,,,157.5,82.5,B,Raw,No,Open,38,1978-08-04
3,M,Vyacheslav Batov,Вячеслав Батов,82,,,,,,-140,140,145,145,,,,,,,145,82.5,B,Raw,No,Open,31,1985-09-08
4,M,Kyamran Guseynov,Кямран Гусейнов,81.3,,,,,,135,142.5,-145,142.5,,,,,,,142.5,82.5,B,Raw,No,Open,29,1987-08-19
5,M,Sergey Eganov,Сергей Еганов,78.6,,,,,,120,127.5,-130,127.5,,,,,,,127.5,82.5,B,Raw,No,Open,32,1984-08-28
1,M,Dmitriy Andreev,Дмитрий Андреев,87.4,,,,,,165,172.5,-175,172.5,,,,,,,172.5,90,B,Raw,No,Juniors 20-23,23,1993-02-16
2,M,Timofey Savchenko,Тимофей Савченко,89.7,,,,,,160,-170,-175,160,,,,,,,160,90,B,Raw,No,Juniors 20-23,23,1993-10-13
1,M,Konstantin Skobkin,Константин Скобкин,90,,,,,,-170,175,177.5,177.5,,,,,,,177.5,90,B,Raw,No,Open,33,1983-03-18
2,M,Stanislav Kandaurov,Станислав Кандауров,87.6,,,,,,-175,175,-185,175,,,,,,,175,90,B,Raw,No,Open,26,1990-05-26
3,M,Stanislav Lebedinskiy,Станислав Лебединский,89.7,,,,,,160,170,-175,170,,,,,,,170,90,B,Raw,No,Open,28,1988-05-14
1,M,Aleksey Vasilev,Алексей Васильев,99.6,,,,,,195,200,205,205,,,,,,,205,100,B,Raw,No,Open,37,1979-10-27
2,M,Andrey Volkov,Андрей Волков,94.4,,,,,,190,-192.5,,190,,,,,,,190,100,B,Raw,No,Open,41,1975-09-29
3,M,Ivan Solntsev,Иван Солнцев,96.7,,,,,,175,,,175,,,,,,,175,100,B,Raw,No,Open,42,1974-03-25
4,M,Igor Malakhov,Игорь Малахов,98.1,,,,,,170,-180,-180,170,,,,,,,170,100,B,Raw,No,Open,34,1982-07-11
1,M,Andrey Volkov,Андрей Волков,94.4,,,,,,190,,,190,,,,,,,190,100,B,Raw,No,Masters 40-44,41,1975-09-29
DQ,M,Andrey Volkov,Андрей Волков,94.4,,,,,,-190,,,,,,,,,,,100,B,Raw,No,Masters 40-44,41,1975-09-29
1,M,Pavel Veresov,Павел Вересов,108.2,,,,,,192.5,200,-202.5,200,,,,,,,200,110,B,Raw,No,Open,35,1981-12-05
2,M,Denis Deryagin,Денис Дерягин,107.1,,,,,,195,-202.5,-202.5,195,,,,,,,195,110,B,Raw,No,Open,36,1980-02-28
3,M,Vasiliy Markitantov,Василий Маркитантов,101.7,,,,,,185,190,-195,190,,,,,,,190,110,B,Raw,No,Open,36,1980-02-21
4,M,Georgiy Shlyk,Георгий Шлык,102.8,,,,,,175,-180,-185,175,,,,,,,175,110,B,Raw,No,Open,31,1985-06-07
DQ,M,Aleksey Konoplev,Алексей Коноплев,107.8,,,,,,-182.5,-182.5,-185,,,,,,,,,110,B,Raw,No,Open,31,1985-05-08
1,M,Konstantin Khramtsov,Константин Храмцов,108.2,,,,,,170,175,180,180,,,,,,,180,110,B,Raw,No,Masters 40-44,42,1974-09-17
DQ,M,Aleksey Saitov,Алексей Саитов,107.7,,,,,,,,,,,,,,,,,110,B,Raw,No,Masters 40-44,43,1973-09-05
1,M,Aleksandr Pisarenko,Александр Писаренко,104.3,,,,,,155,165,170,170,,,,,,,170,110,B,Raw,No,Masters 55-59,57,1959-09-27
1,M,Denis Karabak,Денис Карабак,121.6,,,,,,185,192.5,200,200,,,,,,,200,125,B,Raw,No,Open,34,1982-09-12
2,M,Sergey Matus,Сергей Матус,112.6,,,,,,160,175,-180,175,,,,,,,175,125,B,Raw,No,Open,35,1981-06-02
3,M,Andrey Simonov,Андрей Симонов,110.8,,,,,,160,-170,170,170,,,,,,,170,125,B,Raw,No,Open,38,1978-01-22
4,M,Aleksey Karelskiy,Алексей Карельский,113.9,,,,,,170,-177.5,-177.5,170,,,,,,,170,125,B,Raw,No,Open,39,1977-11-23
1,M,Denis Chistotin,Денис Чистотин,122.6,,,,,,140,150,160,160,,,,,,,160,125,B,Raw,No,Masters 40-44,41,1975-05-14
1,M,Anatoliy Ivanyuk,Анатолий Иванюк,126.1,,,,,,182.5,192.5,-200,192.5,,,,,,,192.5,140,B,Raw,No,Open,25,1991-05-26
DQ,M,Kyamran Guseynov,Кямран Гусейнов,135,,,,,,,,,,,,,,,,,140,B,Raw,No,Open,29,1987-08-19
1,F,Anastasiya Sokhina,Анастасия Сохина,47.5,,,,,,50,52.5,-55,52.5,,,,,,,52.5,48,B,Raw,Yes,Teen 16-17,16,2000-12-03
1,F,Mariya Denisova,Мария Денисова,47.8,,,,,,45,-50,50,50,,,,,,,50,48,B,Raw,Yes,Masters 45-49,45,1971-06-09
1,F,Viktoriya Shmonina,Виктория Шмонина,50.9,,,,,,45,50,52.5,52.5,,,,,,,52.5,52,B,Raw,Yes,Teen 16-17,17,1999-07-21
2,F,Diana Gomenyuk,Диана Гоменюк,51.1,,,,,,25,30,35,35,,,,,,,35,52,B,Raw,Yes,Teen 16-17,16,2000-02-10
1,F,Ekaterina Barbashenova,Екатерина Барбашенова,50.1,,,,,,47.5,52.5,55,55,,,,,,,55,52,B,Raw,Yes,Juniors 20-23,21,1995-06-29
2,F,Alena Sokolova,Алена Соколова,49.7,,,,,,50,-57.5,-57.5,50,,,,,,,50,52,B,Raw,Yes,Juniors 20-23,21,1995-01-14
1,F,Tatyana Taranukho,Татьяна Таранухо,50.9,,,,,,55,-57.5,-57.5,55,,,,,,,55,52,B,Raw,Yes,Open,35,1981-07-13
2,F,Marina Samsonova,Марина Самсонова,51.5,,,,,,45,-47.5,50,50,,,,,,,50,52,B,Raw,Yes,Open,31,1985-11-05
1,F,Yuliya Gromova,Юлия Громова,53,,,,,,25,27.5,32.5,32.5,,,,,,,32.5,56,B,Raw,Yes,Teen 13-15,14,2002-12-17
1,F,Ekaterina Raylyan,Екатерина Райлян,59.1,,,,,,62.5,67.5,-70,67.5,,,,,,,67.5,60,B,Raw,Yes,Teen 18-19,18,1998-04-07
1,F,Kseniya Yakovleva,Ксения Яковлева,59,,,,,,50,-52.5,55,55,,,,,,,55,60,B,Raw,Yes,Open,25,1990-12-24
2,F,Svetlana Fomina,Светлана Фомина,59.2,,,,,,55,-60,-60,55,,,,,,,55,60,B,Raw,Yes,Open,24,1992-01-13
3,F,Nadezhda Skoptsova,Надежда Скопцова,57.4,,,,,,42.5,47.5,50,50,,,,,,,50,60,B,Raw,Yes,Open,39,1977-10-19
1,F,Tatyana Kharitonova,Татьяна Харитонова,58.4,,,,,,52.5,57.5,60,60,,,,,,,60,60,B,Raw,Yes,Masters 40-44,40,1976-05-09
1,F,Anna Margieva,Анна Маргиева,66.5,,,,,,60,-65,-65,60,,,,,,,60,67.5,B,Raw,Yes,Open,24,1992-02-13
1,M,Dmitriy Syropyatov,Дмитрий Сыропятов,44.8,,,,,,35,-37.5,-37.5,35,,,,,,,35,52,B,Raw,Yes,Teen 13-15,13,2003-11-20
2,M,Ivan Nikitinskiy,Иван Никитинский,41,,,,,,-27.5,30,32.5,32.5,-33.5,,,,,,32.5,52,B,Raw,Yes,Youth,12,2004-07-07
1,M,Ivan Nikitinskiy,Иван Никитинский,41,,,,,,-27.5,30,32.5,32.5,-33.5,,,,,,32.5,52,B,Raw,Yes,Open,12,2004-07-07
DQ,M,Aleksey Saitov,Алексей Саитов,20,,,,,,,,,,,,,,,,,52,B,Raw,Yes,Open,43,1973-09-05
1,M,Nikita Kintushev,Никита Кинтушев,64,,,,,,65,70,72.5,72.5,,,,,,,72.5,67.5,B,Raw,Yes,Teen 16-17,16,2000-10-01
1,M,Anton Postol,Антон Постол,71.9,,,,,,127.5,-132.5,-132.5,127.5,,,,,,,127.5,75,B,Raw,Yes,Juniors 20-23,21,1995-01-12
2,M,Kablan Kofi,Каблан Кофи,69.7,,,,,,122.5,-127.5,-130,122.5,,,,,,,122.5,75,B,Raw,Yes,Juniors 20-23,22,1994-03-15
3,M,Oleg Evsyukov,Олег Евсюков,73.7,,,,,,102.5,107.5,-117.5,107.5,,,,,,,107.5,75,B,Raw,Yes,Juniors 20-23,21,1995-10-14
1,M,Dmitriy Vladimirov,Дмитрий Владимиров,73.7,,,,,,150,155,160,160,,,,,,,160,75,B,Raw,Yes,Open,30,1986-08-12
2,M,Roman Grinev,Роман Гринев,70.5,,,,,,150,-155,-155,150,,,,,,,150,75,B,Raw,Yes,Open,32,1984-11-15
3,M,Denis Pakhomov,Денис Пахомов,74.8,,,,,,80,-90,-92.5,80,,,,,,,80,75,B,Raw,Yes,Open,31,1985-03-04
DQ,M,Ruslan Grinev,Руслан Гринев,70.5,,,,,,,,,,,,,,,,,75,B,Raw,Yes,Open,36,1980-03-30
1,M,Vladimir Buchin,Владимир Бучин,80.8,,,,,,135,-137.5,142.5,142.5,,,,,,,142.5,82.5,B,Raw,Yes,Juniors 20-23,23,1993-11-12
2,M,Sergey Kovalenko,Сергей Коваленко,82,,,,,,-130,130,-145,130,,,,,,,130,82.5,B,Raw,Yes,Juniors 20-23,22,1994-07-23
1,M,Dmitriy Prisyazhnyuk,Дмитрий Присяжнюк,81.1,,,,,,170,175,-177.5,175,,,,,,,175,82.5,B,Raw,Yes,Open,24,1992-07-12
2,M,Sergey Biryukov #2,Сергей Бирюков,81.7,,,,,,155,160,-165,160,,,,,,,160,82.5,B,Raw,Yes,Open,34,1982-01-10
3,M,Artem Khabarov,Артем Хабаров,81.1,,,,,,150,-155,155,155,,,,,,,155,82.5,B,Raw,Yes,Open,31,1985-04-14
4,M,Igor Kocherov,Игорь Кочеров,80.8,,,,,,145,150,-152.5,150,,,,,,,150,82.5,B,Raw,Yes,Open,36,1980-08-25
5,M,Aleksandr Chashchin,Александр Чащин,81.2,,,,,,145,150,-155,150,,,,,,,150,82.5,B,Raw,Yes,Open,29,1987-06-15
6,M,Nikolay Trusov,Николай Трусов,80.4,,,,,,115,127.5,-135,127.5,,,,,,,127.5,82.5,B,Raw,Yes,Open,24,1992-06-05
7,M,Aleksandr Tovstukha,Александр Товстуха,81.6,,,,,,125,127.5,-132.5,127.5,,,,,,,127.5,82.5,B,Raw,Yes,Open,28,1988-10-05
8,M,Dmitriy Klyukvin,Дмитрий Клюквин,82.1,,,,,,-120,127.5,-130,127.5,,,,,,,127.5,82.5,B,Raw,Yes,Open,39,1977-06-08
1,M,Denis Sidorov,Денис Сидоров,80.5,,,,,,107.5,112.5,120,120,,,,,,,120,82.5,B,Raw,Yes,Masters 40-44,40,1976-03-09
1,M,Aleksandr Mikhaylov,Александр Михайлов,82.2,,,,,,82.5,87.5,92.5,92.5,,,,,,,92.5,82.5,B,Raw,Yes,Masters 55-59,58,1958-12-09
1,M,Ilya Vlaskin,Илья Власкин,86.8,,,,,,-125,132.5,-135,132.5,,,,,,,132.5,90,B,Raw,Yes,Teen 18-19,19,1997-09-14
2,M,Yuriy Shipitsyn,Юрий Шипицын,85.5,,,,,,110,120,125,125,,,,,,,125,90,B,Raw,Yes,Teen 16-17,17,1999-03-06
1,M,Pavel Kochurov,Павел Кочуров,88.6,,,,,,-145,-152.5,152.5,152.5,,,,,,,152.5,90,B,Raw,Yes,Juniors 20-23,20,1996-06-04
2,M,Kirill Sukhanov,Кирилл Суханов,88,,,,,,135,-145,150,150,,,,,,,150,90,B,Raw,Yes,Juniors 20-23,21,1994-12-22
DQ,M,Dmitriy Andreev,Дмитрий Андреев,87.4,,,,,,-170,,,,,,,,,,,90,B,Raw,Yes,Juniors 20-23,23,1993-02-16
1,M,Igor Ermolaev,Игорь Ермолаев,89.6,,,,,,160,,,160,,,,,,,160,90,B,Raw,Yes,Open,42,1974-03-15
2,M,Dmitriy Ivanov #27,Дмитрий Иванов,85.8,,,,,,145,152.5,155,155,,,,,,,155,90,B,Raw,Yes,Open,26,1990-03-09
3,M,Aleksandr Petrov,Александр Петров,89,,,,,,145,-152.5,152.5,152.5,,,,,,,152.5,90,B,Raw,Yes,Open,32,1984-03-03
4,M,Sergey Paramonov,Сергей Парамонов,86.2,,,,,,132.5,-135,135,135,,,,,,,135,90,B,Raw,Yes,Open,38,1978-02-12
DQ,M,Aleksandr Syropyatov,Александр Сыропятов,89.2,,,,,,-125,-127.5,-127.5,,,,,,,,,90,B,Raw,Yes,Masters 40-44,43,1973-04-29
1,M,Konstantin Panshin,Константин Паншин,88,,,,,,140,145,-152.5,145,,,,,,,145,90,B,Raw,Yes,Masters 55-59,56,1960-01-22
1,M,Yuriy Dyachkov,Юрий Дьячков,98.1,,,,,,95,105,112.5,112.5,,,,,,,112.5,100,B,Raw,Yes,Teen 16-17,17,1999-10-03
DQ,M,Aleksandr Ogoreltsev,Александр Огорельцев,95.9,,,,,,-155,-155,-155,,,,,,,,,100,B,Raw,Yes,Juniors 20-23,21,1995-04-20
1,M,Aleksey Berezhkov,Алексей Бережков,96.8,,,,,,155,162.5,-170,162.5,,,,,,,162.5,100,B,Raw,Yes,Open,34,1982-08-08
2,M,Oleg Korelskiy,Олег Корельский,97.6,,,,,,155,160,162.5,162.5,,,,,,,162.5,100,B,Raw,Yes,Open,41,1975-09-03
3,M,Andrey Sugorovskiy,Андрей Сугоровский,99.2,,,,,,155,162.5,-170,162.5,,,,,,,162.5,100,B,Raw,Yes,Open,46,1970-07-09
4,M,Vitaliy Lilimberg,Виталий Лилимберг,95.6,,,,,,150,155,160,160,,,,,,,160,100,B,Raw,Yes,Open,25,1991-03-04
1,M,Sergey Fayzulov,Сергей Файзулов,98.5,,,,,,110,120,125,125,,,,,,,125,100,B,Raw,Yes,Masters 40-44,40,1976-01-08
1,M,Andrey Sugorovskiy,Андрей Сугоровский,99.2,,,,,,155,162.5,-170,162.5,,,,,,,162.5,100,B,Raw,Yes,Masters 45-49,46,1970-07-09
1,M,Ruslan Zhelkobaev,Руслан Желкобаев,105.5,,,,,,85,95,-102.5,95,,,,,,,95,110,B,Raw,Yes,Teen 16-17,16,2000-08-30
1,M,Maksim Vladimirov,Максим Владимиров,108.9,,,,,,180,187.5,-195,187.5,,,,,,,187.5,110,B,Raw,Yes,Open,35,1981-10-25
2,M,Andrey Lobanov,Андрей Лобанов,109.2,,,,,,175,180,182.5,182.5,,,,,,,182.5,110,B,Raw,Yes,Open,32,1984-06-13
3,M,Aleksey Saitov,Алексей Саитов,107.7,,,,,,172.5,,,172.5,,,,,,,172.5,110,B,Raw,Yes,Open,43,1973-09-05
4,M,Nikolay Snegirev,Николай Снегирев,105.4,,,,,,147.5,-167.5,-167.5,147.5,,,,,,,147.5,110,B,Raw,Yes,Open,30,1986-03-14
DQ,M,Aleksey Saitov,Алексей Саитов,107.7,,,,,,-172.5,,,,,,,,,,,110,B,Raw,Yes,Open,43,1973-09-05
1,M,Aleksey Saitov,Алексей Саитов,107.7,,,,,,172.5,-177.5,-182.5,172.5,,,,,,,172.5,110,B,Raw,Yes,Masters 40-44,43,1973-09-05
1,M,Artem Vorontsov,Артем Воронцов,110.4,,,,,,205,210,-215,210,,,,,,,210,125,B,Raw,Yes,Open,40,1976-08-03
2,M,Artem Vorontsov,Артем Воронцов,110.4,,,,,,205,210,-215,210,,,,,,,210,125,B,Raw,Yes,Masters 40-44,40,1976-08-03
1,M,Dmitriy Patyupin,Дмитрий Патюпин,98.7,,,,,,215,230,235,235,,,,,,,235,100,B,Single-ply,Yes,Open,25,1991-11-28
1,M,Aleksandr Musokhranov,Александр Мусохранов,105.9,,,,,,185,195,-200,195,,,,,,,195,110,B,Single-ply,No,Open,36,1980-10-16
1,M,Vitaliy Lilimberg,Виталий Лилимберг,95.6,,,,,,155,162.5,170,170,,,,,,,170,100,B,Multi-ply,Yes,Open,25,1991-03-04
1,F,Darya Ryabukhina,Дарья Рябухина,51.1,,,,,,,,,,,60,70,-80,70,,70,52,D,Raw,Yes,Juniors 20-23,20,1996-04-13
1,F,Natalya Mikhadyuk,Наталья Михадюк,50.3,,,,,,,,,,,80,85,90,90,,90,52,D,Raw,Yes,Open,26,1990-05-02
1,F,Natalya Pilipyuk,Наталья Пилипюк,54.5,,,,,,,,,,,117.5,125,132.5,132.5,,132.5,56,D,Raw,Yes,Open,32,1983-12-21
1,F,Galina Kozlova,Галина Козлова,66.7,,,,,,,,,,,110,117.5,125,125,,125,67.5,D,Raw,Yes,Open,26,1990-04-30
DQ,M,Anton Kostyuchenko,Антон Костюченко,62.7,,,,,,,,,,,-170,-170,-170,,,,67.5,D,Raw,Yes,Juniors 20-23,21,1995-03-29
1,M,Denis Pakhomov,Денис Пахомов,74.8,,,,,,,,,,,130,142.5,-152.5,142.5,,142.5,75,D,Raw,Yes,Open,31,1985-03-04
1,M,Aleksandr Mikhaylov,Александр Михайлов,80.6,,,,,,,,,,,170,190,200,200,,200,82.5,D,Raw,Yes,Teen 18-19,19,1997-03-05
1,M,Aleksandr Gerasimov,Александр Герасимов,79.6,,,,,,,,,,,190,200,-215,200,,200,82.5,D,Raw,Yes,Juniors 20-23,20,1996-09-12
1,M,Anton Gryazev,Антон Грязев,81.6,,,,,,,,,,,230,-240,-240,230,,230,82.5,D,Raw,Yes,Open,29,1987-06-05
2,M,Sergey Grobovoy,Сергей Гробовой,81.6,,,,,,,,,,,190,200,-217.5,200,,200,82.5,D,Raw,Yes,Open,25,1991-09-09
1,M,Vladimir Panfilov,Владимир Панфилов,80.8,,,,,,,,,,,165,175,-190,175,,175,82.5,D,Raw,Yes,Masters 60-64,63,1953-01-21
DQ,M,Ivan Nikitinskiy,Иван Никитинский,88.9,,,,,,,,,,,-215,,,,,,90,D,Raw,Yes,Youth,12,2004-07-07
1,M,Stanislav Belov,Станислав Белов,88.9,,,,,,,,,,,235,,,235,,235,90,D,Raw,Yes,Open,26,1990-11-11
2,M,Rodion Aunin,Родион Аунин,85.4,,,,,,,,,,,200,215,220,220,,220,90,D,Raw,Yes,Open,25,1991-12-09
1,M,Igor Chayka,Игорь Чайка,93.2,,,,,,,,,,,210,-225,230,230,,230,100,D,Raw,Yes,Juniors 20-23,22,1994-06-09
1,F,Svetlana Egorova,Светлана Егорова,78.7,,,,,,,,,,,95,102.5,107.5,107.5,,107.5,82.5,D,Raw,No,Masters 40-44,40,1976-02-15
1,M,Artem Aleshin,Артем Алешин,80.4,,,,,,,,,,,160,180,200,200,,200,82.5,D,Raw,No,Juniors 20-23,23,1993-06-04
1,M,Dmitriy Gritsaev,Дмитрий Грицаев,81.8,,,,,,,,,,,250,,,250,,250,82.5,D,Raw,No,Open,25,1991-06-05
1,M,Dmitriy Dubkov,Дмитрий Дубков,89.9,,,,,,,,,,,250,,,250,,250,90,D,Raw,No,Open,36,1980-01-29
2,M,Andrey Pavlyuchenko,Андрей Павлюченко,88.6,,,,,,,,,,,240,,,240,,240,90,D,Raw,No,Open,26,1990-04-20
3,M,Aleksandr Savchenko,Александр Савченко,89.2,,,,,,,,,,,240,-260,-260,240,,240,90,D,Raw,No,Open,34,1982-01-06
4,M,Mikhail Aleshin,Михаил Алешин,89.3,,,,,,,,,,,190,215,235,235,,235,90,D,Raw,No,Open,29,1987-02-22
1,M,Anatoliy Kovalev,Анатолий Ковалев,93.4,,,,,,,,,,,240,260,-272.5,260,,260,100,D,Raw,No,Open,25,1991-08-01
2,M,Vyacheslav Artamonov,Вячеслав Артамонов,93.4,,,,,,,,,,,240,,,240,,240,100,D,Raw,No,Open,29,1987-07-16
1,M,Sergey Kuznetsov #16,Сергей Кузнецов,104.7,,,,,,,,,,,220,240,255,255,,255,110,D,Raw,No,Open,33,1983-01-15
2,M,Aleksey Shmarykin,Алексей Шмарыкин,106.3,,,,,,,,,,,180,190,200,200,,200,110,D,Raw,No,Open,37,1979-06-14
1,M,Nikolay Khlopchur,Николай Хлопчур,122.5,,,,,,,,,,,340,,,340,,340,125,D,Raw,No,Open,29,1987-09-18
1,M,Vyacheslav Shchigelskiy,Вячеслав Щигельский,136.4,,,,,,,,,,,310,,,310,,310,140,D,Raw,No,Open,27,1989-09-04
1,M,Denis Nikolaev,Денис Николаев,70,,,,,,,,,,,205,,,205,,205,75,D,Raw,Yes,Open,25,1991-07-15
2,M,Evgeniy Tagirov,Евгений Тагиров,81.7,,,,,,,,,,,200,220,-225,220,,220,82.5,D,Raw,Yes,Juniors 20-23,22,1994-10-20
